<svg width="557" height="429" viewBox="0 0 557 429" fill="none" xmlns="http://www.w3.org/2000/svg">
<path d="M297.662 373.949L270.354 360.693L258.881 384.356L286.188 397.613L297.662 373.949Z" fill="#4A5EA3"/>
<path d="M268.943 364.051L238.825 367.847L242.116 393.936L272.234 390.14L268.943 364.051Z" fill="#4A5EA3"/>
<path d="M307.37 375.567H253.916V429H307.37V375.567Z" fill="#D2DCFF"/>
<path d="M253.916 375.567H224.47V429H253.916V375.567Z" fill="#AEC3FF"/>
<path d="M224.47 375.567L209.174 391.945H242.398L253.916 375.567H224.47Z" fill="#86A2E2"/>
<path d="M307.37 375.567L318.287 392.157H264.911L253.916 375.488L307.37 375.567Z" fill="#AEC3FF"/>
<path d="M265.256 364.684L263.106 375.506L268.915 364.223L265.256 364.684Z" fill="#2F3D6C"/>
<path d="M550.056 410.827V406.7C550.056 405.424 549.021 404.389 547.745 404.389H451.952C447.119 404.389 443.201 408.306 443.201 413.137V420.173C443.201 425.004 447.119 428.921 451.952 428.921H547.745C549.022 428.921 550.056 427.886 550.056 426.61V422.483C550.056 421.207 549.021 420.173 547.745 420.173H455.472C453.527 420.173 451.952 418.598 451.952 416.655C451.952 414.711 453.527 413.136 455.472 413.136H547.745C549.021 413.138 550.056 412.104 550.056 410.827Z" fill="#86A2E2"/>
<path d="M549.125 337.231V333.104C549.125 331.829 548.09 330.794 546.813 330.794H451.02C446.187 330.794 442.269 334.711 442.269 339.542V346.578C442.269 351.409 446.187 355.326 451.02 355.326H546.813C548.09 355.326 549.125 354.291 549.125 353.016V348.889C549.125 347.612 548.09 346.578 546.813 346.578H454.54C452.596 346.578 451.02 345.003 451.02 343.059C451.02 341.116 452.596 339.541 454.54 339.541H546.813C548.09 339.542 549.125 338.507 549.125 337.231Z" fill="#D2DCFF"/>
<path d="M543.211 386.295V382.169C543.211 380.892 542.176 379.859 540.899 379.859H458.794C453.961 379.859 450.043 383.775 450.043 388.606V395.643C450.043 400.474 453.961 404.39 458.794 404.39H540.899C542.176 404.39 543.211 403.356 543.211 402.08V397.954C543.211 396.677 542.176 395.643 540.899 395.643H462.314C460.37 395.643 458.794 394.067 458.794 392.124C458.794 390.18 460.37 388.605 462.314 388.605H540.899C542.176 388.605 543.211 387.571 543.211 386.295Z" fill="#AEC3FF"/>
<path d="M557 313.366V309.239C557 307.963 555.965 306.929 554.688 306.929H472.583C467.75 306.929 463.832 310.846 463.832 315.677V322.713C463.832 327.545 467.75 331.461 472.583 331.461H554.688C555.965 331.461 557 330.427 557 329.151V325.024C557 323.748 555.965 322.715 554.688 322.715H476.103C474.159 322.715 472.583 321.139 472.583 319.196C472.583 317.252 474.159 315.677 476.103 315.677H554.688C555.965 315.676 557 314.642 557 313.366Z" fill="#AEC3FF"/>
<path d="M540.167 388.605V395.641H462.314C460.37 395.641 458.794 394.066 458.794 392.123C458.794 390.179 460.37 388.604 462.314 388.604H540.167V388.605Z" fill="#EFF1FA"/>
<path d="M533.291 413.138V420.174H455.438C453.494 420.174 451.918 418.599 451.918 416.656C451.918 414.712 453.494 413.137 455.438 413.137H533.291V413.138Z" fill="#EFF1FA"/>
<path d="M532.362 339.542V346.578H454.509C452.564 346.578 450.989 345.003 450.989 343.059C450.989 341.116 452.564 339.541 454.509 339.541H532.362V339.542Z" fill="#EFF1FA"/>
<path d="M553.956 315.676V322.712H476.103C474.159 322.712 472.583 321.137 472.583 319.194C472.583 317.25 474.159 315.675 476.103 315.675H553.956V315.676Z" fill="#EFF1FA"/>
<path d="M557 361.763V357.636C557 356.359 555.965 355.325 554.688 355.325H472.583C467.75 355.325 463.832 359.241 463.832 364.072V371.109C463.832 375.94 467.75 379.856 472.583 379.856H554.688C555.965 379.856 557 378.822 557 377.546V373.42C557 372.143 555.965 371.11 554.688 371.11H476.103C474.159 371.11 472.583 369.535 472.583 367.591C472.583 365.647 474.159 364.072 476.103 364.072H554.688C555.965 364.074 557 363.039 557 361.763Z" fill="#86A2E2"/>
<path d="M553.956 364.074V371.11H476.103C474.159 371.11 472.583 369.535 472.583 367.591C472.583 365.647 474.159 364.072 476.103 364.072H553.956V364.074Z" fill="#EFF1FA"/>
<path d="M513.215 294.645H527.32C528.016 294.645 528.555 295.252 528.473 295.943L527.279 305.906C527.209 306.489 526.715 306.928 526.127 306.928H514.409C513.822 306.928 513.326 306.489 513.256 305.906L512.063 295.943C511.98 295.253 512.52 294.645 513.215 294.645Z" fill="#D2DCFF"/>
<path d="M525.109 290.58V286.05L522.398 291.2V282.835L520.267 288.102L518.137 282.835V291.2L515.426 286.05V290.58L511.474 284.229L513.216 294.645H520.267H527.319L529.06 284.229L525.109 290.58Z" fill="#6277D7"/>
<path d="M354.568 274.856H177.779C172.804 274.856 168.772 270.826 168.772 265.853V97.5999C168.772 92.6274 172.804 88.5964 177.779 88.5964H354.568C359.542 88.5964 363.575 92.6274 363.575 97.5999V265.853C363.575 270.826 359.542 274.856 354.568 274.856Z" fill="#6277D7"/>
<path d="M279.611 115.557H195.728C194.235 115.557 193.024 114.347 193.024 112.855C193.024 111.362 194.235 110.152 195.728 110.152H279.611C281.104 110.152 282.314 111.362 282.314 112.855C282.314 114.347 281.104 115.557 279.611 115.557Z" fill="#E1E9FF"/>
<path d="M252.644 129.039H195.728C194.235 129.039 193.024 127.829 193.024 126.337C193.024 124.844 194.235 123.634 195.728 123.634H252.644C254.137 123.634 255.348 124.844 255.348 126.337C255.348 127.829 254.137 129.039 252.644 129.039Z" fill="#E1E9FF"/>
<path d="M209.946 151.128H194.955C193.889 151.128 193.024 150.264 193.024 149.198C193.024 148.132 193.889 147.268 194.955 147.268H209.946C211.012 147.268 211.876 148.132 211.876 149.198C211.876 150.263 211.012 151.128 209.946 151.128Z" fill="#89AEFF"/>
<path d="M216.47 213.166V261.33C216.47 262.397 215.606 263.26 214.539 263.26H206.738C205.671 263.26 204.807 262.397 204.807 261.33V213.166C204.807 212.1 205.671 211.236 206.738 211.236H214.539C215.606 211.236 216.47 212.1 216.47 213.166Z" fill="#89AEFF"/>
<path d="M237.67 193.815V261.33C237.67 262.397 236.806 263.26 235.739 263.26H227.938C226.871 263.26 226.007 262.397 226.007 261.33V193.815C226.007 192.749 226.871 191.885 227.938 191.885H235.739C236.806 191.885 237.67 192.75 237.67 193.815Z" fill="#89AEFF"/>
<path d="M263.201 213.166V261.33C263.201 262.397 262.337 263.26 261.27 263.26H253.469C252.402 263.26 251.538 262.397 251.538 261.33V213.166C251.538 212.1 252.402 211.236 253.469 211.236H261.27C262.337 211.236 263.201 212.1 263.201 213.166Z" fill="#89AEFF"/>
<path d="M284.4 193.815V261.33C284.4 262.397 283.535 263.26 282.469 263.26H274.668C273.601 263.26 272.737 262.397 272.737 261.33V193.815C272.737 192.749 273.601 191.885 274.668 191.885H282.469C283.535 191.885 284.4 192.75 284.4 193.815Z" fill="#89AEFF"/>
<path d="M309.931 227.27V261.33C309.931 262.397 309.066 263.26 308 263.26H300.199C299.132 263.26 298.268 262.397 298.268 261.33V227.27C298.268 226.203 299.132 225.34 300.199 225.34H308C309.066 225.341 309.931 226.205 309.931 227.27Z" fill="#89AEFF"/>
<path d="M331.13 213.166V261.33C331.13 262.397 330.266 263.26 329.2 263.26H321.399C320.332 263.26 319.468 262.397 319.468 261.33V213.166C319.468 212.1 320.332 211.236 321.399 211.236H329.2C330.265 211.236 331.13 212.1 331.13 213.166Z" fill="#89AEFF"/>
<path d="M216.47 230.954V261.329C216.47 262.396 215.606 263.259 214.539 263.259H206.738C205.671 263.259 204.807 262.396 204.807 261.329V230.954C204.807 229.888 205.671 229.024 206.738 229.024H214.539C215.606 229.026 216.47 229.889 216.47 230.954Z" fill="#D2DCFF"/>
<path d="M237.67 218.221V261.33C237.67 262.397 236.806 263.26 235.739 263.26H227.938C226.871 263.26 226.007 262.397 226.007 261.33V218.221C226.007 217.155 226.871 216.291 227.938 216.291H235.739C236.806 216.291 237.67 217.155 237.67 218.221Z" fill="#D2DCFF"/>
<path d="M263.201 230.954V261.329C263.201 262.396 262.337 263.259 261.27 263.259H253.469C252.402 263.259 251.538 262.396 251.538 261.329V230.954C251.538 229.888 252.402 229.024 253.469 229.024H261.27C262.337 229.026 263.201 229.889 263.201 230.954Z" fill="#D2DCFF"/>
<path d="M284.4 218.221V261.33C284.4 262.397 283.535 263.26 282.469 263.26H274.668C273.601 263.26 272.737 262.397 272.737 261.33V218.221C272.737 217.155 273.601 216.291 274.668 216.291H282.469C283.535 216.291 284.4 217.155 284.4 218.221Z" fill="#D2DCFF"/>
<path d="M309.931 240.236V261.329C309.931 262.396 309.066 263.259 308 263.259H300.199C299.132 263.259 298.268 262.396 298.268 261.329V240.236C298.268 239.17 299.132 238.306 300.199 238.306H308C309.066 238.307 309.931 239.171 309.931 240.236Z" fill="#D2DCFF"/>
<path d="M331.13 230.954V261.329C331.13 262.396 330.266 263.259 329.2 263.259H321.399C320.332 263.259 319.468 262.396 319.468 261.329V230.954C319.468 229.888 320.332 229.024 321.399 229.024H329.2C330.265 229.026 331.13 229.889 331.13 230.954Z" fill="#D2DCFF"/>
<path d="M134.916 0H153.988L160.591 7.95512H201.884C204.677 7.95512 206.94 10.2175 206.94 13.0091L207.686 56.718C207.686 59.5095 205.422 61.7719 202.63 61.7719H134.916C132.123 61.7719 129.86 59.5095 129.86 56.718V5.05397C129.86 2.2624 132.123 0 134.916 0Z" fill="#6277D7"/>
<path d="M141.425 15.3485H195.68C197.918 15.3485 199.731 17.256 199.731 19.6078V40.5529C199.731 42.9047 197.918 44.8122 195.68 44.8122H141.425C139.188 44.8122 137.374 42.9058 137.374 40.5529V19.6078C137.374 17.256 139.188 15.3485 141.425 15.3485Z" fill="#D2DCFF"/>
<path d="M134.916 23.2926H202.63C205.422 23.2926 207.686 25.7822 207.686 28.8542V56.209C207.686 59.2809 205.422 61.7708 202.63 61.7708H134.916C132.123 61.7708 129.86 59.2809 129.86 56.209V28.8542C129.86 25.7822 132.123 23.2926 134.916 23.2926Z" fill="#89AEFF"/>
<path d="M53.3825 300.908C53.3825 303.323 52.0659 305.429 50.1125 306.552L49.5368 305.369C47.9306 302.071 47.9058 298.236 49.4452 294.931C51.7605 295.926 53.3825 298.228 53.3825 300.908Z" fill="#F9AFAB"/>
<path d="M123.227 242.115L121.292 238.343C121.821 235.24 122.046 231.865 121.869 228.247C121.829 227.429 121.768 226.6 121.686 225.759C117.649 226.116 105.803 226.59 97.09 221.065C97.7325 226.194 95.8142 231.879 92.6347 236.671C92.249 235.746 90.8612 232.885 88.47 232.885C83.6867 232.885 82.9627 240.526 85.6378 244.166C83.7907 245.537 81.8565 246.572 79.9405 247.147C79.9405 247.147 79.9326 247.14 79.9201 247.127V269.124H98.47V259.54C100.964 260.454 103.179 260.98 104.741 260.98C109.41 260.98 116.487 254.72 119.92 243.993H122.079C122.791 243.993 123.367 243.416 123.367 242.705C123.37 242.499 123.321 242.297 123.227 242.115Z" fill="#FCBEB7"/>
<path d="M85.6378 244.166C82.9627 240.526 83.6867 232.885 88.47 232.885C90.86 232.885 92.2479 235.746 92.6347 236.671C95.8142 231.878 97.7325 226.194 97.09 221.065C105.804 226.591 117.649 226.117 121.686 225.759C121.768 226.6 121.829 227.43 121.869 228.247C122.218 227.915 123.038 226.994 123.097 225.605C123.099 225.605 123.101 225.605 123.101 225.605C123.101 225.566 123.101 225.526 123.099 225.486C123.099 225.474 123.101 225.463 123.101 225.45C123.101 225.443 123.099 225.437 123.099 225.429C122.993 217.51 115.741 204.063 98.0436 204.063C79.2912 204.063 75.7837 216.267 75.7837 216.267C75.7837 216.267 69.3286 219.802 69.3286 226.93C69.3286 236.296 79.4292 246.631 79.9201 247.128C79.9326 247.141 79.9405 247.149 79.9405 247.149C81.8565 246.572 83.7907 245.537 85.6378 244.166Z" fill="#311643"/>
<path d="M98.4711 269.124V259.54C93.3213 257.649 86.9804 254.093 82.7331 250.053L98.4711 269.124Z" fill="#F9AFAB"/>
<path d="M101.537 246.277C104.315 246.277 106.566 244.026 106.566 241.25C106.566 238.474 104.315 236.223 101.537 236.223C98.7602 236.223 96.5087 238.474 96.5087 241.25C96.5087 244.026 98.7602 246.277 101.537 246.277Z" fill="#F49795"/>
<path d="M112.288 249.021C111.277 249.021 110.586 248.638 110.167 248.289C109.644 247.855 109.425 247.388 109.401 247.336C109.296 247.103 109.4 246.829 109.633 246.723C109.865 246.618 110.138 246.721 110.243 246.953C110.272 247.014 110.893 248.277 112.673 248.071C112.926 248.042 113.157 248.224 113.187 248.478C113.216 248.733 113.034 248.962 112.779 248.992C112.609 249.012 112.445 249.021 112.288 249.021Z" fill="#311643"/>
<path d="M115.125 235.091C114.568 235.091 114.115 234.639 114.115 234.082V232.196C114.115 231.638 114.568 231.186 115.125 231.186C115.683 231.186 116.135 231.638 116.135 232.196V234.082C116.135 234.639 115.683 235.091 115.125 235.091Z" fill="#311643"/>
<path d="M121.94 232.675H118.822V226.928C118.822 226.673 118.615 226.466 118.359 226.466C118.103 226.466 117.896 226.673 117.896 226.928V239.349C117.896 239.605 118.103 239.812 118.359 239.812C118.615 239.812 118.822 239.605 118.822 239.349V233.601H121.94C122.196 233.601 122.403 233.394 122.403 233.139C122.403 232.883 122.196 232.675 121.94 232.675Z" fill="white"/>
<path d="M152.601 307.039L100.404 327.363L84.993 347.868C82.6177 351.028 79.2652 353.252 75.5157 354.241L98.3524 369.96L142.052 346.976L140.252 402.784H159.856L176.241 327.204C179.221 313.466 165.704 301.938 152.601 307.039Z" fill="#6277D7"/>
<path d="M140.252 410.662V424.508C140.252 426.123 141.562 427.432 143.177 427.432H182.465C182.839 427.432 183.141 427.129 183.141 426.756V424.204C183.141 422.973 182.423 421.854 181.303 421.341L157.972 410.662H140.252Z" fill="#2F3D6C"/>
<path d="M140.252 402.784V410.662H157.972L159.856 402.784H140.252Z" fill="#FCBEB7"/>
<path d="M122.44 357.291L98.3524 369.96L80.3861 357.291H122.44Z" fill="#4A5EA3"/>
<path d="M175.761 317.868C174.271 318.863 172.481 319.443 170.555 319.443C165.374 319.443 161.174 315.243 161.174 310.064C161.174 308.637 161.493 307.285 162.063 306.074C168.381 307.197 173.712 311.781 175.761 317.868Z" fill="#4A5EA3"/>
<path d="M55.9614 282.68L49.7393 294.337C47.9069 297.77 47.8311 301.872 49.5357 305.369L50.0706 306.467L54.9083 286.419C55.2126 285.155 55.5655 283.908 55.9614 282.68Z" fill="#FCBEB7"/>
<path d="M75.5157 354.241C75.6378 354.209 75.76 354.176 75.881 354.141C79.4824 353.106 82.6947 350.925 84.993 347.868L100.404 327.362L99.1939 285.673L114.727 289.055L120.888 269.624L79.9314 253.476C68.4927 259.852 59.953 270.311 55.9625 282.679C55.5667 283.907 55.2137 285.154 54.9095 286.418L50.0718 306.466L38.2066 355.637L71.5037 354.814C72.8723 354.78 74.2172 354.584 75.5157 354.241Z" fill="#89AEFF"/>
<path d="M99.4043 292.935L79.0707 280.142L99.1939 285.681L99.4043 292.935Z" fill="#4A62D3"/>
<path d="M44.2772 409.249L36.9681 402.12C35.5418 400.728 33.3215 400.561 31.7018 401.721L0.373969 424.172C-0.0286984 424.461 -0.120255 425.02 0.168172 425.422L1.54358 427.34C2.27087 428.354 3.45057 428.946 4.6993 428.922L17.2793 428.679L44.2772 409.249Z" fill="#2F3D6C"/>
<path d="M44.2772 428.678H17.2793L44.2772 409.249V428.678Z" fill="#FCBEB7"/>
<path d="M133.321 394.311L75.881 354.141C75.76 354.176 75.6378 354.21 75.5157 354.241C74.2172 354.584 72.8723 354.78 71.5025 354.814L38.2055 355.637C38.2055 369.946 46.8029 382.855 60.0084 388.375L93.8246 402.51L44.2772 409.246V428.677H122.489C140.967 428.678 148.462 404.899 133.321 394.311Z" fill="#6277D7"/>
<path d="M136.187 422.895C133.535 421.238 131.77 418.294 131.77 414.936C131.77 409.813 135.881 405.649 140.984 405.559C142.34 411.71 140.479 418.323 136.187 422.895Z" fill="#4A5EA3"/>
<path d="M204.347 227.307L192.545 223.388C191.845 223.155 191.08 223.221 190.43 223.567L183.132 227.454L181.481 227.813C180.864 227.948 180.355 228.379 180.121 228.963L177.249 236.147L128.316 272.29L120.888 269.626L114.727 289.057L129.087 292.022C132.423 292.71 135.881 291.669 138.281 289.254L184.218 243.019L192.652 238.063C193.429 237.606 193.92 236.784 193.954 235.884L193.988 234.99L194.535 234.463C195.11 233.909 195.403 233.123 195.333 232.328L195.267 231.585C195.882 230.986 196.166 230.125 196.031 229.279L195.912 228.532L203.868 229.463C204.367 229.522 204.842 229.238 205.028 228.771C205.263 228.176 204.952 227.508 204.347 227.307Z" fill="#FCBEB7"/>
<path d="M139.103 288.423L138.28 289.252C135.88 291.667 132.422 292.708 129.086 292.019L128.413 291.881V291.879C128.802 288.823 131.412 286.461 134.574 286.461C136.36 286.462 137.971 287.217 139.103 288.423Z" fill="#F9AFAB"/>
<path d="M385.409 404.188L383.51 412.079L362.799 418.58L365.777 404.188H385.409Z" fill="#FCBEB7"/>
<path d="M455.191 404.188L454.626 413.935L455.917 414.411L456.767 418.585L436.075 412.079L435.558 404.188H455.191Z" fill="#FCBEB7"/>
<path d="M346.824 421.645L363.662 414.41L362.799 418.581L383.51 412.08V418.012C383.51 420.098 382.419 421.99 380.703 423.053L378.921 428.143C378.768 428.583 378.352 428.878 377.885 428.878C377.279 428.878 376.788 428.387 376.788 427.781V424.469L362.633 428.878H348.313C346.231 428.878 344.543 427.191 344.543 425.11C344.543 423.601 345.44 422.24 346.824 421.645Z" fill="#2F3D6C"/>
<path d="M436.057 417.954L436.074 412.021L456.766 418.583L455.916 414.41L472.732 421.695C474.114 422.294 475.007 423.658 475.003 425.164C474.997 427.245 473.304 428.928 471.222 428.921L456.902 428.879L442.265 424.274L442.254 427.74C442.252 428.346 441.76 428.836 441.154 428.834C440.688 428.833 440.273 428.536 440.12 428.097L438.188 422.523C436.863 421.417 436.052 419.757 436.057 417.954Z" fill="#2F3D6C"/>
<path d="M395.047 96.1764V128.834H411.7H427.02H428.077H448.82C448.82 128.834 448.82 103.756 448.82 89.1789C448.82 73.4979 436.196 70.7708 436.196 70.7708C436.196 70.7708 431.606 63.4033 418.25 63.4033C402.18 63.4033 391.463 73.2445 391.463 85.3922C391.463 90.9708 393.732 94.563 395.047 96.1764ZM395.319 90.7572C397.351 90.2982 403.064 85.2666 403.064 80.1063C407.537 87.5019 421.206 98.1436 441.532 91.648V91.6494C441.595 91.6404 441.658 91.6345 441.725 91.6345C446.561 91.6345 446.897 105.077 438.76 105.854C438.641 106.248 438.517 106.624 438.392 106.974V128.834H420.038V120.337C418.758 120.698 417.532 120.905 416.409 120.905C408.816 120.905 395.618 109.198 395.319 90.7572Z" fill="#311643"/>
<path d="M420.036 120.337C418.757 120.698 417.531 120.905 416.408 120.905C408.816 120.905 395.618 109.198 395.319 90.7561C397.351 90.2971 403.064 85.2655 403.064 80.1052C407.537 87.5008 421.206 98.1425 441.532 91.6469V91.648C441.595 91.639 441.658 91.6334 441.725 91.6334C446.561 91.6334 446.897 105.076 438.76 105.853C438.641 106.247 438.517 106.623 438.392 106.973V121.678L452.767 128.393V146.186H404.997V126.852L420.038 122.272L420.036 120.337Z" fill="#FCBEB7"/>
<path d="M404.996 146.188V126.854L420.036 122.274V120.338C424.289 119.139 429.124 116.233 432.673 113.522L404.996 146.188Z" fill="#F9AFAB"/>
<path d="M429.84 106.326C432.605 106.326 434.847 104.085 434.847 101.321C434.847 98.5565 432.605 96.3155 429.84 96.3155C427.074 96.3155 424.832 98.5565 424.832 101.321C424.832 104.085 427.074 106.326 429.84 106.326Z" fill="#F49795"/>
<path d="M395.962 97.1657C396.597 100.527 397.661 103.592 399.005 106.319C401.653 106.189 403.759 104.001 403.759 101.321C403.759 98.5565 401.517 96.3166 398.753 96.3166C397.721 96.3166 396.761 96.6287 395.962 97.1657Z" fill="#F49795"/>
<path d="M397.337 93.1924C397.337 97.1034 400.52 100.285 404.432 100.285C408.254 100.285 411.38 97.2467 411.521 93.4602C413.658 92.2493 415.531 93.1133 416.12 93.4525C416.258 97.2435 419.383 100.285 423.208 100.285C427.121 100.285 430.304 97.1034 430.304 93.1924C430.304 89.2815 427.121 86.0997 423.208 86.0997C419.554 86.0997 416.536 88.8767 416.155 92.4303C415.229 92.0052 413.476 91.4986 411.487 92.4336C411.107 88.8777 408.088 86.0997 404.432 86.0997C400.52 86.0997 397.337 89.2815 397.337 93.1924ZM417.042 93.1924C417.042 89.7926 419.809 87.028 423.21 87.028C426.61 87.028 429.378 89.7937 429.378 93.1924C429.378 96.5912 426.611 99.3577 423.21 99.3577C419.809 99.3577 417.042 96.5912 417.042 93.1924ZM398.266 93.1924C398.266 89.7926 401.032 87.028 404.434 87.028C407.834 87.028 410.601 89.7937 410.601 93.1924C410.601 96.5912 407.835 99.3577 404.434 99.3577C401.032 99.3577 398.266 96.5912 398.266 93.1924Z" fill="white"/>
<path d="M404.427 95.1487C404.986 95.1487 405.44 94.6953 405.44 94.1368V92.2462C405.44 91.6877 404.986 91.2342 404.427 91.2342C403.869 91.2342 403.415 91.6877 403.415 92.2462V94.1368C403.415 94.6964 403.869 95.1487 404.427 95.1487Z" fill="#311643"/>
<path d="M422.9 95.1487C423.459 95.1487 423.913 94.6953 423.913 94.1368V92.2462C423.913 91.6877 423.459 91.2342 422.9 91.2342C422.34 91.2342 421.888 91.6877 421.888 92.2462V94.1368C421.888 94.6964 422.34 95.1487 422.9 95.1487Z" fill="#311643"/>
<path d="M415.671 109.749C417.479 109.749 418.71 109.069 419.455 108.451C420.395 107.67 420.785 106.819 420.802 106.783C420.907 106.549 420.803 106.274 420.569 106.169C420.336 106.064 420.062 106.168 419.956 106.4C419.903 106.515 418.619 109.205 414.89 108.774C414.634 108.745 414.405 108.927 414.375 109.181C414.346 109.435 414.528 109.666 414.784 109.696C415.093 109.733 415.39 109.749 415.671 109.749Z" fill="#311643"/>
<path d="M452.06 205.737L459.699 238.074C461.905 247.413 462.775 257.017 462.28 266.599L455.191 404.187H435.558L427.176 261.396L385.409 404.187H365.777L400.344 205.736H452.06V205.737Z" fill="#6277D7"/>
<path d="M426.082 137.441C422.596 137.441 419.808 134.085 417.928 130.686H437.808C434.777 134.076 430.623 137.441 426.082 137.441Z" fill="white"/>
<path d="M388.886 137.701C391.95 132.933 396.61 129.408 402.034 127.758L415.209 123.747C415.209 124.301 416.173 127.512 417.928 130.686C419.808 134.085 422.596 137.441 426.082 137.441C430.623 137.441 434.776 134.076 437.808 130.686C440.885 127.247 442.806 123.782 442.806 123.782L454.832 129.352C460.286 131.878 464.194 136.869 465.337 142.767L473.35 184.134H457.052L454.684 168.534L452.06 205.737H400.344L395.646 166.139L383.327 177.215L373.108 162.253L388.886 137.701Z" fill="#FE9ECC"/>
<path d="M373.108 162.253L387.458 173.5L383.326 177.215L373.108 162.253Z" fill="#FF78BA"/>
<path d="M394.754 315.535C399.944 315.535 404.151 311.329 404.151 306.141C404.151 300.953 399.944 296.748 394.754 296.748C389.564 296.748 385.357 300.953 385.357 306.141C385.357 311.329 389.564 315.535 394.754 315.535Z" fill="#4A5EA3"/>
<path d="M443.988 315.535C449.178 315.535 453.385 311.329 453.385 306.141C453.385 300.953 449.178 296.748 443.988 296.748C438.799 296.748 434.591 300.953 434.591 306.141C434.591 311.329 438.799 315.535 443.988 315.535Z" fill="#4A5EA3"/>
<path d="M316.978 123.357L333.933 117.549C335.623 117.009 337.463 117.211 338.995 118.104L345.58 121.948L383.326 177.216L378.14 181.952C373.852 185.867 367.009 184.594 364.416 179.4L339.572 129.616L333.4 130.373C332.468 130.487 331.523 130.313 330.694 129.874L328.516 128.722C327.498 128.184 326.718 127.283 326.334 126.198L325.887 124.94L317.612 126.059C316.938 126.162 316.287 125.761 316.078 125.112C315.84 124.377 316.244 123.591 316.978 123.357Z" fill="#FCBEB7"/>
<path d="M450.191 241.863L453.997 238.441L457.052 184.134H473.35L463.172 240.279L463.182 253.027C463.086 254.758 462.329 256.386 461.067 257.574L459.488 259.063C457.556 260.884 454.972 261.853 452.32 261.75L450.056 261.663C449.252 261.632 448.777 260.75 449.192 260.063L452.479 254.625L452.201 244.473L450.562 250.392C450.286 251.391 449.283 252.004 448.268 251.794V246.18C448.266 244.533 448.966 242.963 450.191 241.863Z" fill="#FCBEB7"/>
<path d="M455.628 134.629C455.628 137.908 458.288 140.567 461.569 140.567C462.635 140.567 463.635 140.285 464.501 139.794C463.102 136.041 460.529 132.83 457.166 130.643C456.211 131.697 455.628 133.094 455.628 134.629Z" fill="#FF78BA"/>
<path d="M452.06 205.737H400.344L399.613 209.934L452.387 207.121L452.06 205.737Z" fill="#4A5EA3"/>
<path d="M365.597 181.187C368.599 184.706 374.006 185.328 377.744 182.29C377.408 179.173 374.767 176.745 371.56 176.745C368.743 176.747 366.362 178.619 365.597 181.187Z" fill="#F9AFAB"/>
</svg>
